{
  "main": {
    "name":"Hannah Beth Cooper",
    "occupation":"Trainer and Content Writer",
    "description":"Passionate and enthusiastic leader practiced in facilitating the development of individuals progressing through the course of their educational and professional endeavors. ",
    "image":"profilepic.jpg",
    "bio":"Experience of working with a diverse client base within both private and public sectors in a an international environment. Qualified Public Speaking, Life and Leadership Skills and English Language trainer.",
    "contactmessage":"Go and take an appointement",
    "email": "hannah@gmail.com",
    "phone": "555-555-5555",
    "address":{
      "street":"(Your Street)",
      "city":"Beirut",
      "state":"(Your State)",
      "zip": "(Your Zip/Postal Code)"
    },
    "website": "http://www.timbakerdev.com",
    "resumedownload":"",
    "social":[
      {
        "name":"facebook",
        "url":"http://facebook.com/",
        "className":"fa fa-facebook"
      },
      {
        "name":"twitter",
        "url":"http://twitter.com",
        "className":"fa fa-twitter"
      },
      {
        "name":"google-plus",
        "url":"http://googleplus.com/",
        "className":"fa fa-google-plus"
      },
      {
        "name":"linkedin",
        "url":"https://www.linkedin.com/",
        "className":"fa fa-linkedin"
      },
      {
        "name":"instagram",
        "url":"http://instagram.com/",
        "className":"fa fa-instagram"
      },
      {
        "name":"github",
        "url":"http://github.com/",
        "className":"fa fa-github"
      },
      {
        "name":"skype",
        "url":"http://skype.com",
        "className":"fa fa-skype"
      }
    ]
  },
  "resume":{
    "skillmessage":"Here you can create a short write-up of your skills to show off to employers",
    "education":[
      {
        "school":"University of Kent",
        "degree":"Bachelor in Beer Art",
        "graduated":"2008",
        "description":"Social Psycology and Social Policy"
      }
    
    ],
    "work":[
      {
        "company":"Codi",
        "title":"Trainer and content writer ",
        "years":"2018 - Present",
        "description":"Describe work, special projects, notable achievements, what technologies you have been working with, and anything else that would be useful for an employer to know."
      },
      {
        "company":"Self Employeed",
        "title":"Freelancer Trainer",
        "years":"Present",
        "description":"Describe work, special projects, notable achievements, what technologies you have been working with, and anything else that would be useful for an employer to know."
      }
    ],
    "skills":[
      {
        "name":"Git",
        "level":"60%"
      },
      {
        "name":"Illustrator",
        "level":"55%"
      },
      {
        "name":"ReactJs",
        "level":"50%"
      },
      {
        "name":"CSS",
        "level":"90%"
      },
      {
        "name":"HTML5",
        "level":"80%"
      },
      {
        "name":"VueJs",
        "level":"50%"
      },
      {
        "name":"MongoDB",
        "level":"80%"
      }
    ]
  },
  "portfolio":{
    "projects": [
      {
        "title":"Canadian Wanderlust",
        "category":"My Travel Blog for my post-university travels",
        "image":"canadian-wanderlust.jpg",
        "url":"https://www.canadianwanderlust.com"
      },
      {
        "title":"Fury Fighting Gear",
        "category":"(offline now) A fighting gear company I started",
        "image":"fury-fighting-gear.jpg",
        "url":"http://www.timbakerdev.com"
      },
      {
        "title":"Original Thai Food",
        "category":"Website I built for a restaurant I like in Thailand",
        "image":"original-thai-food.jpg",
        "url":"http://www.timbakerdev.com/originalthaifood.github.io"
      },
      {
        "title":"Resume Website",
        "category":"A React based resume website template",
        "image":"resume-website.jpg",
        "url":"http://www.timbakerdev.com"
      },
      {
        "title":"Smirkspace",
        "category":"(MVP Only) A React and Meteor based chat University project.",
        "image":"smirkspace.jpg",
        "url":"http://www.smirkspace.com"
      }
    ]
  },
  "testimonials":{
    "testimonials":[
      {
        "text":"Here you should write some nice things that someone has said about you. No lies though, employers can tell when you are lying.",
        "user":"Kareem Abdul Jabbar"
      },
      {
        "text":"That Tim Baker must be one of the most brilliant developers I've ever met! It is amazing that nobody has hired him yet. Hey you, you should hire this guy, he may be fresh out of University and have zero on the job experience but I am confident that he will be one of your best developers in no time!",
        "user":"Steve Wozniak... impersonator"
      },
      {
        "text":"That Tim Baker must be one of the most brilliant developers I've ever met! It is amazing that nobody has hired him yet. Hey you, you should hire this guy, he may be fresh out of University and have zero on the job experience but I am confident that he will be one of your best developers in no time!",
        "user":"razan... impersonator"
      }
    ]
  }
}
